<svg xmlns="http://www.w3.org/2000/svg" width="64.67" height="64.67" viewBox="0 0 64.67 64.67">
  <path id="Exclusion_4" data-name="Exclusion 4" d="M49.67,64.67H15a15,15,0,0,1-15-15V15A15,15,0,0,1,15,0H49.67a15,15,0,0,1,15,15V49.67a15,15,0,0,1-15,15ZM22.89,17.3a3.359,3.359,0,0,0-3.345,3.348l-.025,23.357a3.344,3.344,0,0,0,5.777,2.3l7.07-7.478,3.2,5.467a1.024,1.024,0,1,0,1.768-1.035l-3.173-5.417,9.97-2.544a3.346,3.346,0,0,0,.8-6.163L24.523,17.735A3.361,3.361,0,0,0,22.89,17.3Zm0,28.01a1.39,1.39,0,0,1-.505-.1,1.267,1.267,0,0,1-.815-1.206l.025-23.359a1.27,1.27,0,0,1,.641-1.117,1.264,1.264,0,0,1,1.288-.013L43.938,30.929a1.3,1.3,0,0,1-.313,2.388L32.879,36.059a3.341,3.341,0,0,0-1.6.944l-7.469,7.9A1.226,1.226,0,0,1,22.89,45.314Z" fill="#4e8df9"/>
</svg>
